{
  "project_info": {
    "project_number": "914581871468",
    "firebase_url": "https://my-chat-31e37.firebaseio.com",
    "project_id": "my-chat-31e37",
    "storage_bucket": "my-chat-31e37.appspot.com"
  },
  "client": [
    {
      "client_info": {
        "mobilesdk_app_id": "1:914581871468:android:f28cc49bf09706446ef149",
        "android_client_info": {
          "package_name": "com.octogonalmist.mychat"
        }
      },
      "oauth_client": [
        {
          "client_id": "914581871468-3jq7qug1l3qnmct3lapdr6atlkksr517.apps.googleusercontent.com",
          "client_type": 1,
          "android_info": {
            "package_name": "com.octogonalmist.mychat",
            "certificate_hash": "711e31ead4eebe01b978096f753d81b100d6840f"
          }
        },
        {
          "client_id": "914581871468-i9lbgtr5b24b2tb1m9cv6680son592cl.apps.googleusercontent.com",
          "client_type": 3
        }
      ],
      "api_key": [
        {
          "current_key": "AIzaSyCGwMEKq8d0jjdQo_urdwLNkWOoHcNSVeI"
        }
      ],
      "services": {
        "appinvite_service": {
          "other_platform_oauth_client": [
            {
              "client_id": "914581871468-i9lbgtr5b24b2tb1m9cv6680son592cl.apps.googleusercontent.com",
              "client_type": 3
            }
          ]
        }
      }
    }
  ],
  "configuration_version": "1"
}